%YAML 1.1
%TAG !u! tag:unity3d.com,2011:
--- !u!114 &11400000
MonoBehaviour:
  m_ObjectHideFlags: 0
  m_CorrespondingSourceObject: {fileID: 0}
  m_PrefabInstance: {fileID: 0}
  m_PrefabAsset: {fileID: 0}
  m_GameObject: {fileID: 0}
  m_Enabled: 1
  m_EditorHideFlags: 0
  m_Script: {fileID: 11500000, guid: 1fe29de9e8b36f24d92bb6ab27889bc4, type: 3}
  m_Name: Menu
  m_EditorClassIdentifier: 
  id: menu
  windowPrefab: {fileID: 196328444686663615, guid: 2acc71c11ad3dd444ac65e8db3f421db, type: 3}
  isNeedClose: 0
